,año,valoracion,Presupuesto,Director,titulo
0,2014,6.0,160.0,Peter jacson,Gozilla
1,2014,,250.0,Carlos cogua,El hobit 3
2,2013,8.75,100.0,Martin scosesse,El lobo de wallstreet
3,2013,,,albert ens,gravity
